﻿{
  "version": "1.0.0-*",
  "compilationOptions": {
    "emitEntryPoint": false
  },

  "dependencies": {
    "Microsoft.AspNet.IISPlatformHandler": "1.0.0-rc1-final",
    "Microsoft.AspNet.Server.Kestrel": "1.0.0-rc1-final",
    "Microsoft.Dnx.Runtime": "1.0.0-rc1-final",
    "Microsoft.Extensions.DependencyInjection": "1.0.0-rc1-final"
  },

  "commands": {
    "web": "Microsoft.AspNet.Server.Kestrel",
    "run": "CommandLineSample"
  },

  "frameworks": {
    "dnx451": { },
    "dnxcore5":{}
  },

  "exclude": [
    "wwwroot",
    "node_modules"
  ],
  "publishExclude": [
    "**.user",
    "**.vspscc"
  ]
}
